%YAML 1.1
%TAG !u! tag:unity3d.com,2011:
--- !u!74 &7400000
AnimationClip:
  m_ObjectHideFlags: 0
  m_PrefabParentObject: {fileID: 0}
  m_PrefabInternal: {fileID: 0}
  m_Name: FlyAcrossScreen
  serializedVersion: 6
  m_Legacy: 0
  m_Compressed: 0
  m_UseHighQualityCurve: 1
  m_RotationCurves: []
  m_CompressedRotationCurves: []
  m_EulerCurves: []
  m_PositionCurves:
  - curve:
      serializedVersion: 2
      m_Curve:
      - time: 0
        value: {x: 13.33, y: 1.94, z: 0}
        inSlope: {x: -152.87999, y: -23.28, z: 0}
        outSlope: {x: -152.87999, y: -23.28, z: 0}
        tangentMode: 0
      - time: 0.083333336
        value: {x: 0.59, y: 0, z: 0}
        inSlope: {x: -86.03999, y: -17.250288, z: 0}
        outSlope: {x: -86.03999, y: -17.250288, z: 0}
        tangentMode: 0
      - time: 0.1
        value: {x: 0.27, y: -0.18700957, z: 0}
        inSlope: {x: -8.033333, y: -7.490484, z: 0}
        outSlope: {x: -8.033333, y: -7.490484, z: 0}
        tangentMode: 0
      - time: 0.25
        value: {x: 0.74, y: -0.75106865, z: 0}
        inSlope: {x: 1.0733333, y: -1.3794844, z: 0}
        outSlope: {x: 1.0733333, y: -1.3794844, z: 0}
        tangentMode: 0
      - time: 1
        value: {x: 0, y: 0, z: 0}
        inSlope: {x: -0.9866667, y: 1.0014249, z: 0}
        outSlope: {x: -0.9866667, y: 1.0014249, z: 0}
        tangentMode: 0
      m_PreInfinity: 2
      m_PostInfinity: 2
      m_RotationOrder: 4
    path: 
  m_ScaleCurves:
  - curve:
      serializedVersion: 2
      m_Curve:
      - time: 0
        value: {x: 1, y: 1, z: 1}
        inSlope: {x: 4.7999997, y: 4.7999997, z: 4.7999997}
        outSlope: {x: 4.7999997, y: 4.7999997, z: 4.7999997}
        tangentMode: 0
      - time: 0.083333336
        value: {x: 1.4, y: 1.4, z: 1.4}
        inSlope: {x: 2.181818, y: 2.181818, z: 2.181818}
        outSlope: {x: 2.181818, y: 2.181818, z: 2.181818}
        tangentMode: 0
      - time: 1
        value: {x: 1, y: 1, z: 1}
        inSlope: {x: -0.4363636, y: -0.4363636, z: -0.4363636}
        outSlope: {x: -0.4363636, y: -0.4363636, z: -0.4363636}
        tangentMode: 0
      m_PreInfinity: 2
      m_PostInfinity: 2
      m_RotationOrder: 4
    path: 
  m_FloatCurves:
  - curve:
      serializedVersion: 2
      m_Curve:
      - time: 0
        value: 1
        inSlope: Infinity
        outSlope: Infinity
        tangentMode: 31
      - time: 1
        value: 0
        inSlope: Infinity
        outSlope: Infinity
        tangentMode: 31
      m_PreInfinity: 2
      m_PostInfinity: 2
      m_RotationOrder: 4
    attribute: m_Enabled
    path: 
    classID: 212
    script: {fileID: 0}
  m_PPtrCurves: []
  m_SampleRate: 60
  m_WrapMode: 0
  m_Bounds:
    m_Center: {x: 0, y: 0, z: 0}
    m_Extent: {x: 0, y: 0, z: 0}
  m_ClipBindingConstant:
    genericBindings:
    - path: 0
      attribute: 1
      script: {fileID: 0}
      classID: 4
      customType: 0
      isPPtrCurve: 0
    - path: 0
      attribute: 3
      script: {fileID: 0}
      classID: 4
      customType: 0
      isPPtrCurve: 0
    - path: 0
      attribute: 3305885265
      script: {fileID: 0}
      classID: 212
      customType: 0
      isPPtrCurve: 0
    pptrCurveMapping: []
  m_AnimationClipSettings:
    serializedVersion: 2
    m_AdditiveReferencePoseClip: {fileID: 0}
    m_AdditiveReferencePoseTime: 0
    m_StartTime: 0
    m_StopTime: 1
    m_OrientationOffsetY: 0
    m_Level: 0
    m_CycleOffset: 0
    m_HasAdditiveReferencePose: 0
    m_LoopTime: 0
    m_LoopBlend: 0
    m_LoopBlendOrientation: 0
    m_LoopBlendPositionY: 0
    m_LoopBlendPositionXZ: 0
    m_KeepOriginalOrientation: 0
    m_KeepOriginalPositionY: 1
    m_KeepOriginalPositionXZ: 0
    m_HeightFromFeet: 0
    m_Mirror: 0
  m_EditorCurves:
  - curve:
      serializedVersion: 2
      m_Curve:
      - time: 0
        value: 13.33
        inSlope: -152.87999
        outSlope: -152.87999
        tangentMode: 10
      - time: 0.083333336
        value: 0.59
        inSlope: -86.03999
        outSlope: -86.03999
        tangentMode: 10
      - time: 0.1
        value: 0.27
        inSlope: -8.033333
        outSlope: -8.033333
        tangentMode: 10
      - time: 0.25
        value: 0.74
        inSlope: 1.0733333
        outSlope: 1.0733333
        tangentMode: 10
      - time: 1
        value: 0
        inSlope: -0.9866667
        outSlope: -0.9866667
        tangentMode: 10
      m_PreInfinity: 2
      m_PostInfinity: 2
      m_RotationOrder: 4
    attribute: m_LocalPosition.x
    path: 
    classID: 4
    script: {fileID: 0}
  - curve:
      serializedVersion: 2
      m_Curve:
      - time: 0
        value: 1.94
        inSlope: -23.28
        outSlope: -23.28
        tangentMode: 10
      - time: 0.083333336
        value: 0
        inSlope: -17.250288
        outSlope: -17.250288
        tangentMode: 10
      - time: 0.1
        value: -0.18700957
        inSlope: -7.490484
        outSlope: -7.490484
        tangentMode: 10
      - time: 0.25
        value: -0.75106865
        inSlope: -1.3794844
        outSlope: -1.3794844
        tangentMode: 10
      - time: 1
        value: 0
        inSlope: 1.0014249
        outSlope: 1.0014249
        tangentMode: 10
      m_PreInfinity: 2
      m_PostInfinity: 2
      m_RotationOrder: 4
    attribute: m_LocalPosition.y
    path: 
    classID: 4
    script: {fileID: 0}
  - curve:
      serializedVersion: 2
      m_Curve:
      - time: 0
        value: 0
        inSlope: 0
        outSlope: 0
        tangentMode: 10
      - time: 0.083333336
        value: 0
        inSlope: 0
        outSlope: 0
        tangentMode: 10
      - time: 0.1
        value: 0
        inSlope: 0
        outSlope: 0
        tangentMode: 10
      - time: 0.25
        value: 0
        inSlope: 0
        outSlope: 0
        tangentMode: 10
      - time: 1
        value: 0
        inSlope: 0
        outSlope: 0
        tangentMode: 10
      m_PreInfinity: 2
      m_PostInfinity: 2
      m_RotationOrder: 4
    attribute: m_LocalPosition.z
    path: 
    classID: 4
    script: {fileID: 0}
  - curve:
      serializedVersion: 2
      m_Curve:
      - time: 0
        value: 1
        inSlope: 4.7999997
        outSlope: 4.7999997
        tangentMode: 10
      - time: 0.083333336
        value: 1.4
        inSlope: 2.181818
        outSlope: 2.181818
        tangentMode: 10
      - time: 1
        value: 1
        inSlope: -0.4363636
        outSlope: -0.4363636
        tangentMode: 10
      m_PreInfinity: 2
      m_PostInfinity: 2
      m_RotationOrder: 4
    attribute: m_LocalScale.x
    path: 
    classID: 4
    script: {fileID: 0}
  - curve:
      serializedVersion: 2
      m_Curve:
      - time: 0
        value: 1
        inSlope: 4.7999997
        outSlope: 4.7999997
        tangentMode: 10
      - time: 0.083333336
        value: 1.4
        inSlope: 2.181818
        outSlope: 2.181818
        tangentMode: 10
      - time: 1
        value: 1
        inSlope: -0.4363636
        outSlope: -0.4363636
        tangentMode: 10
      m_PreInfinity: 2
      m_PostInfinity: 2
      m_RotationOrder: 4
    attribute: m_LocalScale.y
    path: 
    classID: 4
    script: {fileID: 0}
  - curve:
      serializedVersion: 2
      m_Curve:
      - time: 0
        value: 1
        inSlope: 4.7999997
        outSlope: 4.7999997
        tangentMode: 10
      - time: 0.083333336
        value: 1.4
        inSlope: 2.181818
        outSlope: 2.181818
        tangentMode: 10
      - time: 1
        value: 1
        inSlope: -0.4363636
        outSlope: -0.4363636
        tangentMode: 10
      m_PreInfinity: 2
      m_PostInfinity: 2
      m_RotationOrder: 4
    attribute: m_LocalScale.z
    path: 
    classID: 4
    script: {fileID: 0}
  - curve:
      serializedVersion: 2
      m_Curve:
      - time: 0
        value: 1
        inSlope: Infinity
        outSlope: Infinity
        tangentMode: 31
      - time: 1
        value: 0
        inSlope: Infinity
        outSlope: Infinity
        tangentMode: 31
      m_PreInfinity: 2
      m_PostInfinity: 2
      m_RotationOrder: 4
    attribute: m_Enabled
    path: 
    classID: 212
    script: {fileID: 0}
  m_EulerEditorCurves: []
  m_HasGenericRootTransform: 1
  m_HasMotionFloatCurves: 0
  m_GenerateMotionCurves: 0
  m_Events: []
