%YAML 1.1
%TAG !u! tag:unity3d.com,2011:
--- !u!74 &7400000
AnimationClip:
  m_ObjectHideFlags: 0
  m_PrefabParentObject: {fileID: 0}
  m_PrefabInternal: {fileID: 0}
  m_Name: BoxIdle
  serializedVersion: 6
  m_Legacy: 0
  m_Compressed: 0
  m_UseHighQualityCurve: 1
  m_RotationCurves: []
  m_CompressedRotationCurves: []
  m_EulerCurves: []
  m_PositionCurves:
  - curve:
      serializedVersion: 2
      m_Curve:
      - time: 0
        value: {x: 1.73, y: 1.69, z: 1.52}
        inSlope: {x: 2.2440004, y: 0, z: 0}
        outSlope: {x: 2.2440004, y: 0, z: 0}
        tangentMode: 0
      - time: 0.16666667
        value: {x: 2.104, y: 1.69, z: 1.52}
        inSlope: {x: 1.1220002, y: 0, z: 0}
        outSlope: {x: 1.1220002, y: 0, z: 0}
        tangentMode: 0
      - time: 0.6666667
        value: {x: 2.104, y: 1.69, z: 1.52}
        inSlope: {x: -2.751001, y: 0, z: 0}
        outSlope: {x: -2.751001, y: 0, z: 0}
        tangentMode: 0
      - time: 0.8333333
        value: {x: 1.187, y: 1.69, z: 1.52}
        inSlope: {x: -1.1220012, y: 0, z: 0}
        outSlope: {x: -1.1220012, y: 0, z: 0}
        tangentMode: 0
      - time: 1
        value: {x: 1.73, y: 1.69, z: 1.52}
        inSlope: {x: 3.2579994, y: 0, z: 0}
        outSlope: {x: 3.2579994, y: 0, z: 0}
        tangentMode: 0
      m_PreInfinity: 2
      m_PostInfinity: 2
      m_RotationOrder: 4
    path: 
  m_ScaleCurves: []
  m_FloatCurves: []
  m_PPtrCurves: []
  m_SampleRate: 12
  m_WrapMode: 0
  m_Bounds:
    m_Center: {x: 0, y: 0, z: 0}
    m_Extent: {x: 0, y: 0, z: 0}
  m_ClipBindingConstant:
    genericBindings:
    - path: 0
      attribute: 1
      script: {fileID: 0}
      classID: 4
      customType: 0
      isPPtrCurve: 0
    pptrCurveMapping: []
  m_AnimationClipSettings:
    serializedVersion: 2
    m_AdditiveReferencePoseClip: {fileID: 0}
    m_AdditiveReferencePoseTime: 0
    m_StartTime: 0
    m_StopTime: 1
    m_OrientationOffsetY: 0
    m_Level: 0
    m_CycleOffset: 0
    m_HasAdditiveReferencePose: 0
    m_LoopTime: 1
    m_LoopBlend: 1
    m_LoopBlendOrientation: 0
    m_LoopBlendPositionY: 0
    m_LoopBlendPositionXZ: 0
    m_KeepOriginalOrientation: 0
    m_KeepOriginalPositionY: 1
    m_KeepOriginalPositionXZ: 0
    m_HeightFromFeet: 0
    m_Mirror: 0
  m_EditorCurves:
  - curve:
      serializedVersion: 2
      m_Curve:
      - time: 0
        value: 1.73
        inSlope: 2.2440004
        outSlope: 2.2440004
        tangentMode: 10
      - time: 0.16666667
        value: 2.104
        inSlope: 1.1220002
        outSlope: 1.1220002
        tangentMode: 10
      - time: 0.6666667
        value: 2.104
        inSlope: -2.751001
        outSlope: -2.751001
        tangentMode: 10
      - time: 0.8333333
        value: 1.187
        inSlope: -1.1220012
        outSlope: -1.1220012
        tangentMode: 10
      - time: 1
        value: 1.73
        inSlope: 3.2579994
        outSlope: 3.2579994
        tangentMode: 10
      m_PreInfinity: 2
      m_PostInfinity: 2
      m_RotationOrder: 4
    attribute: m_LocalPosition.x
    path: 
    classID: 4
    script: {fileID: 0}
  - curve:
      serializedVersion: 2
      m_Curve:
      - time: 0
        value: 1.69
        inSlope: 0
        outSlope: 0
        tangentMode: 10
      - time: 0.16666667
        value: 1.69
        inSlope: 0
        outSlope: 0
        tangentMode: 10
      - time: 0.6666667
        value: 1.69
        inSlope: 0
        outSlope: 0
        tangentMode: 10
      - time: 0.8333333
        value: 1.69
        inSlope: 0
        outSlope: 0
        tangentMode: 10
      - time: 1
        value: 1.69
        inSlope: 0
        outSlope: 0
        tangentMode: 10
      m_PreInfinity: 2
      m_PostInfinity: 2
      m_RotationOrder: 4
    attribute: m_LocalPosition.y
    path: 
    classID: 4
    script: {fileID: 0}
  - curve:
      serializedVersion: 2
      m_Curve:
      - time: 0
        value: 1.52
        inSlope: 0
        outSlope: 0
        tangentMode: 10
      - time: 0.16666667
        value: 1.52
        inSlope: 0
        outSlope: 0
        tangentMode: 10
      - time: 0.6666667
        value: 1.52
        inSlope: 0
        outSlope: 0
        tangentMode: 10
      - time: 0.8333333
        value: 1.52
        inSlope: 0
        outSlope: 0
        tangentMode: 10
      - time: 1
        value: 1.52
        inSlope: 0
        outSlope: 0
        tangentMode: 10
      m_PreInfinity: 2
      m_PostInfinity: 2
      m_RotationOrder: 4
    attribute: m_LocalPosition.z
    path: 
    classID: 4
    script: {fileID: 0}
  m_EulerEditorCurves: []
  m_HasGenericRootTransform: 1
  m_HasMotionFloatCurves: 0
  m_GenerateMotionCurves: 0
  m_Events: []
