%YAML 1.1
%TAG !u! tag:unity3d.com,2011:
--- !u!74 &7400000
AnimationClip:
  m_ObjectHideFlags: 0
  m_PrefabParentObject: {fileID: 0}
  m_PrefabInternal: {fileID: 0}
  m_Name: DemonIdle
  serializedVersion: 6
  m_Legacy: 0
  m_Compressed: 0
  m_UseHighQualityCurve: 1
  m_RotationCurves: []
  m_CompressedRotationCurves: []
  m_EulerCurves:
  - curve:
      serializedVersion: 2
      m_Curve:
      - time: 0
        value: {x: 0, y: 0, z: 0}
        inSlope: {x: 0, y: 0, z: 0}
        outSlope: {x: 0, y: 0, z: 0}
        tangentMode: 0
      - time: 0.41666666
        value: {x: 0, y: 0, z: 0}
        inSlope: {x: 0, y: 0, z: 17.42328}
        outSlope: {x: 0, y: 0, z: 17.42328}
        tangentMode: 0
      - time: 0.8333333
        value: {x: 0, y: 0, z: 14.5194}
        inSlope: {x: 0, y: 0, z: -26.134912}
        outSlope: {x: 0, y: 0, z: -26.134912}
        tangentMode: 0
      - time: 1
        value: {x: 0, y: 0, z: 0}
        inSlope: {x: 0, y: 0, z: -87.11639}
        outSlope: {x: 0, y: 0, z: -87.11639}
        tangentMode: 0
      m_PreInfinity: 2
      m_PostInfinity: 2
      m_RotationOrder: 4
    path: balerina body/balerina left arm
  - curve:
      serializedVersion: 2
      m_Curve:
      - time: 0
        value: {x: 0, y: 0, z: 0}
        inSlope: {x: 0, y: 0, z: -29.05176}
        outSlope: {x: 0, y: 0, z: -29.05176}
        tangentMode: 0
      - time: 0.41666666
        value: {x: 0, y: 0, z: -12.104899}
        inSlope: {x: 0, y: 0, z: -4.1502523}
        outSlope: {x: 0, y: 0, z: -4.1502523}
        tangentMode: 0
      - time: 1
        value: {x: 0, y: 0, z: 0}
        inSlope: {x: 0, y: 0, z: 20.751255}
        outSlope: {x: 0, y: 0, z: 20.751255}
        tangentMode: 0
      m_PreInfinity: 2
      m_PostInfinity: 2
      m_RotationOrder: 4
    path: balerina body/balerina rightt arm
  m_PositionCurves:
  - curve:
      serializedVersion: 2
      m_Curve:
      - time: 0
        value: {x: 6.5800004, y: 0.81216764, z: 3.3}
        inSlope: {x: 0, y: 0, z: 0}
        outSlope: {x: 0, y: 0, z: 0}
        tangentMode: 0
      - time: 0.41666666
        value: {x: 6.5800004, y: 0.81216764, z: 3.3}
        inSlope: {x: 0.25199947, y: 0.7653989, z: 0}
        outSlope: {x: 0.25199947, y: 0.7653989, z: 0}
        tangentMode: 0
      - time: 0.8333333
        value: {x: 6.79, y: 1.45, z: 3.3}
        inSlope: {x: -0.37799916, y: -1.148098, z: 0}
        outSlope: {x: -0.37799916, y: -1.148098, z: 0}
        tangentMode: 0
      - time: 1
        value: {x: 6.5800004, y: 0.81216764, z: 3.3}
        inSlope: {x: -1.2599972, y: -3.826994, z: 0}
        outSlope: {x: -1.2599972, y: -3.826994, z: 0}
        tangentMode: 0
      m_PreInfinity: 2
      m_PostInfinity: 2
      m_RotationOrder: 4
    path: balerina body/balerina left arm
  - curve:
      serializedVersion: 2
      m_Curve:
      - time: 0
        value: {x: -4.7799997, y: -1.5878325, z: 10.219114}
        inSlope: {x: -0.792001, y: 0.714798, z: 0}
        outSlope: {x: -0.792001, y: 0.714798, z: 0}
        tangentMode: 0
      - time: 0.41666666
        value: {x: -5.11, y: -1.29, z: 10.219114}
        inSlope: {x: -0.11314303, y: 0.10211402, z: 0}
        outSlope: {x: -0.11314303, y: 0.10211402, z: 0}
        tangentMode: 0
      - time: 1
        value: {x: -4.7799997, y: -1.5878325, z: 10.219114}
        inSlope: {x: 0.56571496, y: -0.51056993, z: 0}
        outSlope: {x: 0.56571496, y: -0.51056993, z: 0}
        tangentMode: 0
      m_PreInfinity: 2
      m_PostInfinity: 2
      m_RotationOrder: 4
    path: balerina body/balerina rightt arm
  m_ScaleCurves: []
  m_FloatCurves: []
  m_PPtrCurves: []
  m_SampleRate: 12
  m_WrapMode: 0
  m_Bounds:
    m_Center: {x: 0, y: 0, z: 0}
    m_Extent: {x: 0, y: 0, z: 0}
  m_ClipBindingConstant:
    genericBindings:
    - path: 1173810732
      attribute: 1
      script: {fileID: 0}
      classID: 4
      customType: 0
      isPPtrCurve: 0
    - path: 4124454268
      attribute: 1
      script: {fileID: 0}
      classID: 4
      customType: 0
      isPPtrCurve: 0
    - path: 1173810732
      attribute: 4
      script: {fileID: 0}
      classID: 4
      customType: 14
      isPPtrCurve: 0
    - path: 4124454268
      attribute: 4
      script: {fileID: 0}
      classID: 4
      customType: 14
      isPPtrCurve: 0
    pptrCurveMapping: []
  m_AnimationClipSettings:
    serializedVersion: 2
    m_AdditiveReferencePoseClip: {fileID: 0}
    m_AdditiveReferencePoseTime: 0
    m_StartTime: 0
    m_StopTime: 1
    m_OrientationOffsetY: 0
    m_Level: 0
    m_CycleOffset: 0
    m_HasAdditiveReferencePose: 0
    m_LoopTime: 1
    m_LoopBlend: 0
    m_LoopBlendOrientation: 0
    m_LoopBlendPositionY: 0
    m_LoopBlendPositionXZ: 0
    m_KeepOriginalOrientation: 0
    m_KeepOriginalPositionY: 1
    m_KeepOriginalPositionXZ: 0
    m_HeightFromFeet: 0
    m_Mirror: 0
  m_EditorCurves:
  - curve:
      serializedVersion: 2
      m_Curve:
      - time: 0
        value: 6.5800004
        inSlope: 0
        outSlope: 0
        tangentMode: 10
      - time: 0.41666666
        value: 6.5800004
        inSlope: 0.25199947
        outSlope: 0.25199947
        tangentMode: 10
      - time: 0.8333333
        value: 6.79
        inSlope: -0.37799916
        outSlope: -0.37799916
        tangentMode: 10
      - time: 1
        value: 6.5800004
        inSlope: -1.2599972
        outSlope: -1.2599972
        tangentMode: 10
      m_PreInfinity: 2
      m_PostInfinity: 2
      m_RotationOrder: 4
    attribute: m_LocalPosition.x
    path: balerina body/balerina left arm
    classID: 4
    script: {fileID: 0}
  - curve:
      serializedVersion: 2
      m_Curve:
      - time: 0
        value: 0.81216764
        inSlope: 0
        outSlope: 0
        tangentMode: 10
      - time: 0.41666666
        value: 0.81216764
        inSlope: 0.7653989
        outSlope: 0.7653989
        tangentMode: 10
      - time: 0.8333333
        value: 1.45
        inSlope: -1.148098
        outSlope: -1.148098
        tangentMode: 10
      - time: 1
        value: 0.81216764
        inSlope: -3.826994
        outSlope: -3.826994
        tangentMode: 10
      m_PreInfinity: 2
      m_PostInfinity: 2
      m_RotationOrder: 4
    attribute: m_LocalPosition.y
    path: balerina body/balerina left arm
    classID: 4
    script: {fileID: 0}
  - curve:
      serializedVersion: 2
      m_Curve:
      - time: 0
        value: 3.3
        inSlope: 0
        outSlope: 0
        tangentMode: 10
      - time: 0.41666666
        value: 3.3
        inSlope: 0
        outSlope: 0
        tangentMode: 10
      - time: 0.8333333
        value: 3.3
        inSlope: 0
        outSlope: 0
        tangentMode: 10
      - time: 1
        value: 3.3
        inSlope: 0
        outSlope: 0
        tangentMode: 10
      m_PreInfinity: 2
      m_PostInfinity: 2
      m_RotationOrder: 4
    attribute: m_LocalPosition.z
    path: balerina body/balerina left arm
    classID: 4
    script: {fileID: 0}
  - curve:
      serializedVersion: 2
      m_Curve:
      - time: 0
        value: 0
        inSlope: 0
        outSlope: 0
        tangentMode: 10
      - time: 0.41666666
        value: 0
        inSlope: 0
        outSlope: 0
        tangentMode: 10
      - time: 0.8333333
        value: 0
        inSlope: 0
        outSlope: 0
        tangentMode: 10
      - time: 1
        value: 0
        inSlope: 0
        outSlope: 0
        tangentMode: 10
      m_PreInfinity: 2
      m_PostInfinity: 2
      m_RotationOrder: 4
    attribute: localEulerAnglesRaw.x
    path: balerina body/balerina left arm
    classID: 4
    script: {fileID: 0}
  - curve:
      serializedVersion: 2
      m_Curve:
      - time: 0
        value: 0
        inSlope: 0
        outSlope: 0
        tangentMode: 10
      - time: 0.41666666
        value: 0
        inSlope: 0
        outSlope: 0
        tangentMode: 10
      - time: 0.8333333
        value: 0
        inSlope: 0
        outSlope: 0
        tangentMode: 10
      - time: 1
        value: 0
        inSlope: 0
        outSlope: 0
        tangentMode: 10
      m_PreInfinity: 2
      m_PostInfinity: 2
      m_RotationOrder: 4
    attribute: localEulerAnglesRaw.y
    path: balerina body/balerina left arm
    classID: 4
    script: {fileID: 0}
  - curve:
      serializedVersion: 2
      m_Curve:
      - time: 0
        value: 0
        inSlope: 0
        outSlope: 0
        tangentMode: 10
      - time: 0.41666666
        value: 0
        inSlope: 17.42328
        outSlope: 17.42328
        tangentMode: 10
      - time: 0.8333333
        value: 14.5194
        inSlope: -26.134912
        outSlope: -26.134912
        tangentMode: 10
      - time: 1
        value: 0
        inSlope: -87.11639
        outSlope: -87.11639
        tangentMode: 10
      m_PreInfinity: 2
      m_PostInfinity: 2
      m_RotationOrder: 4
    attribute: localEulerAnglesRaw.z
    path: balerina body/balerina left arm
    classID: 4
    script: {fileID: 0}
  - curve:
      serializedVersion: 2
      m_Curve:
      - time: 0
        value: -4.7799997
        inSlope: -0.792001
        outSlope: -0.792001
        tangentMode: 10
      - time: 0.41666666
        value: -5.11
        inSlope: -0.11314303
        outSlope: -0.11314303
        tangentMode: 10
      - time: 1
        value: -4.7799997
        inSlope: 0.56571496
        outSlope: 0.56571496
        tangentMode: 10
      m_PreInfinity: 2
      m_PostInfinity: 2
      m_RotationOrder: 4
    attribute: m_LocalPosition.x
    path: balerina body/balerina rightt arm
    classID: 4
    script: {fileID: 0}
  - curve:
      serializedVersion: 2
      m_Curve:
      - time: 0
        value: -1.5878325
        inSlope: 0.714798
        outSlope: 0.714798
        tangentMode: 10
      - time: 0.41666666
        value: -1.29
        inSlope: 0.10211402
        outSlope: 0.10211402
        tangentMode: 10
      - time: 1
        value: -1.5878325
        inSlope: -0.51056993
        outSlope: -0.51056993
        tangentMode: 10
      m_PreInfinity: 2
      m_PostInfinity: 2
      m_RotationOrder: 4
    attribute: m_LocalPosition.y
    path: balerina body/balerina rightt arm
    classID: 4
    script: {fileID: 0}
  - curve:
      serializedVersion: 2
      m_Curve:
      - time: 0
        value: 10.219114
        inSlope: 0
        outSlope: 0
        tangentMode: 10
      - time: 0.41666666
        value: 10.219114
        inSlope: 0
        outSlope: 0
        tangentMode: 10
      - time: 1
        value: 10.219114
        inSlope: 0
        outSlope: 0
        tangentMode: 10
      m_PreInfinity: 2
      m_PostInfinity: 2
      m_RotationOrder: 4
    attribute: m_LocalPosition.z
    path: balerina body/balerina rightt arm
    classID: 4
    script: {fileID: 0}
  - curve:
      serializedVersion: 2
      m_Curve:
      - time: 0
        value: 0
        inSlope: 0
        outSlope: 0
        tangentMode: 10
      - time: 0.41666666
        value: 0
        inSlope: 0
        outSlope: 0
        tangentMode: 10
      - time: 1
        value: 0
        inSlope: 0
        outSlope: 0
        tangentMode: 10
      m_PreInfinity: 2
      m_PostInfinity: 2
      m_RotationOrder: 4
    attribute: localEulerAnglesRaw.x
    path: balerina body/balerina rightt arm
    classID: 4
    script: {fileID: 0}
  - curve:
      serializedVersion: 2
      m_Curve:
      - time: 0
        value: 0
        inSlope: 0
        outSlope: 0
        tangentMode: 10
      - time: 0.41666666
        value: 0
        inSlope: 0
        outSlope: 0
        tangentMode: 10
      - time: 1
        value: 0
        inSlope: 0
        outSlope: 0
        tangentMode: 10
      m_PreInfinity: 2
      m_PostInfinity: 2
      m_RotationOrder: 4
    attribute: localEulerAnglesRaw.y
    path: balerina body/balerina rightt arm
    classID: 4
    script: {fileID: 0}
  - curve:
      serializedVersion: 2
      m_Curve:
      - time: 0
        value: 0
        inSlope: -29.05176
        outSlope: -29.05176
        tangentMode: 10
      - time: 0.41666666
        value: -12.104899
        inSlope: -4.1502523
        outSlope: -4.1502523
        tangentMode: 10
      - time: 1
        value: 0
        inSlope: 20.751255
        outSlope: 20.751255
        tangentMode: 10
      m_PreInfinity: 2
      m_PostInfinity: 2
      m_RotationOrder: 4
    attribute: localEulerAnglesRaw.z
    path: balerina body/balerina rightt arm
    classID: 4
    script: {fileID: 0}
  m_EulerEditorCurves:
  - curve:
      serializedVersion: 2
      m_Curve: []
      m_PreInfinity: 2
      m_PostInfinity: 2
      m_RotationOrder: 4
    attribute: m_LocalEulerAngles.z
    path: balerina body/balerina left arm
    classID: 4
    script: {fileID: 0}
  - curve:
      serializedVersion: 2
      m_Curve: []
      m_PreInfinity: 2
      m_PostInfinity: 2
      m_RotationOrder: 4
    attribute: m_LocalEulerAngles.y
    path: balerina body/balerina left arm
    classID: 4
    script: {fileID: 0}
  - curve:
      serializedVersion: 2
      m_Curve: []
      m_PreInfinity: 2
      m_PostInfinity: 2
      m_RotationOrder: 4
    attribute: m_LocalEulerAngles.x
    path: balerina body/balerina left arm
    classID: 4
    script: {fileID: 0}
  - curve:
      serializedVersion: 2
      m_Curve: []
      m_PreInfinity: 2
      m_PostInfinity: 2
      m_RotationOrder: 4
    attribute: m_LocalEulerAngles.x
    path: balerina body/balerina rightt arm
    classID: 4
    script: {fileID: 0}
  - curve:
      serializedVersion: 2
      m_Curve: []
      m_PreInfinity: 2
      m_PostInfinity: 2
      m_RotationOrder: 4
    attribute: m_LocalEulerAngles.y
    path: balerina body/balerina rightt arm
    classID: 4
    script: {fileID: 0}
  - curve:
      serializedVersion: 2
      m_Curve: []
      m_PreInfinity: 2
      m_PostInfinity: 2
      m_RotationOrder: 4
    attribute: m_LocalEulerAngles.z
    path: balerina body/balerina rightt arm
    classID: 4
    script: {fileID: 0}
  m_HasGenericRootTransform: 0
  m_HasMotionFloatCurves: 0
  m_GenerateMotionCurves: 0
  m_Events: []
